Division,WeightClassKg,Place,Name,Team,BodyweightKg,Best3SquatKg,Best3BenchKg,Best3DeadliftKg,TotalKg,Equipment,Event,Sex
Boys,51.71,1,Luis Ramírez,Laredo Cigarroa,50.44,111.13,81.65,133.81,326.59,Single-ply,SBD,M
Boys,51.71,2,Francisco Fuentes,Zapata,48.26,127.01,68.04,115.67,310.71,Single-ply,SBD,M
Boys,51.71,DQ,Jake Gutierrez,Zapata,51.26,,,,,Single-ply,SBD,M
Boys,55.79,1,Jerry Alaniz,Laredo Alexander,55.34,165.56,113.4,156.49,435.45,Single-ply,SBD,M
Boys,55.79,2,Edgar Barbosa,Laredo Cigarroa,55.52,181.44,81.65,140.61,403.7,Single-ply,SBD,M
Boys,55.79,3,Eric Oliva,Laredo United South,53.52,136.08,77.11,149.69,362.87,Single-ply,SBD,M
Boys,55.79,4,Eli Torres,Laredo Nixon,54.79,115.67,72.57,138.35,326.59,Single-ply,SBD,M
Boys,59.87,5,Fidel Quiroz,Laredo United,56.02,104.33,61.23,108.86,274.42,Single-ply,SBD,M
Boys,55.79,6,Josh Baez,Falfurrias,53.71,88.45,68.04,108.86,265.35,Single-ply,SBD,M
Boys,67.13,1,David Lopez,Laredo United South,60.1,145.15,111.13,176.9,433.18,Single-ply,SBD,M
Boys,59.87,2,Mario Cantu,Laredo Cigarroa,59.51,163.29,86.18,179.17,428.64,Single-ply,SBD,M
Boys,67.13,3,Ted Crain,Falfurrias,59.96,174.63,74.84,167.83,417.3,Single-ply,SBD,M
Boys,59.87,4,Luis Mendoza,Laredo Martin,59.87,115.67,65.77,151.95,333.39,Single-ply,SBD,M
Boys,67.13,DQ,Ramon Huerta,Falfurrias,59.96,,,,,Single-ply,SBD,M
Boys,67.13,1,Jordy Silguero,Hebbronville,66.59,188.24,124.74,195.04,508.02,Single-ply,SBD,M
Boys,67.13,2,Cesar Alfaro,Laredo United South,64.95,167.83,120.2,185.97,474,Single-ply,SBD,M
Boys,74.84,3,Elijio Montalvo,Falfurrias,67.36,181.44,83.91,199.58,464.93,Single-ply,SBD,M
Boys,74.84,4,Fermin Rendon,Laredo Nixon,67.22,176.9,97.52,188.24,462.66,Single-ply,SBD,M
Boys,67.13,5,Carlos Vedarte,Laredo United South,63.05,154.22,92.99,181.44,428.64,Single-ply,SBD,M
Boys,67.13,6,Brian Lopez,Laredo United South,63.96,142.88,106.59,158.76,408.23,Single-ply,SBD,M
Boys,67.13,7,Jj Cadena,Laredo United,61.05,145.15,70.31,161.03,376.48,Single-ply,SBD,M
Boys,67.13,8,Rudy Davila,Laredo United,62.6,142.88,83.91,147.42,374.21,Single-ply,SBD,M
Boys,67.13,9,Jose Mosequeda,Laredo Cigarroa,67.04,131.54,72.57,165.56,369.68,Single-ply,SBD,M
Boys,67.13,10,Everando Guerrero,Hebbronville,65.59,145.15,65.77,147.42,358.34,Single-ply,SBD,M
Boys,67.13,11,Marcos Casas,Falfurrias,61.42,124.74,72.57,142.88,340.19,Single-ply,SBD,M
Boys,67.13,12,Albert Estrada,Laredo Martin,62.23,117.93,97.52,122.47,337.93,Single-ply,SBD,M
Boys,67.13,DQ,Jordy Lagrange,Laredo Nixon,64.41,149.69,,,,Single-ply,SBD,M
Boys,74.84,1,Kevin Guerrero,Hebbronville,71.4,199.58,124.74,210.92,535.24,Single-ply,SBD,M
Boys,74.84,2,Edgar Mendiola,Laredo Nixon,73.84,181.44,122.47,208.65,512.56,Single-ply,SBD,M
Boys,74.84,3,Marco Ortiz,Laredo Alexander,68.49,190.51,136.08,183.7,510.29,Single-ply,SBD,M
Boys,74.84,4,Rudy Leon,Laredo United South,74.3,165.56,102.06,204.12,471.74,Single-ply,SBD,M
Boys,74.84,5,Frank Saucedo,Laredo United,74.75,183.7,102.06,183.7,469.47,Single-ply,SBD,M
Boys,82.1,6,Edgar Trejo,Laredo United South,75.07,158.76,106.59,190.51,455.86,Single-ply,SBD,M
Boys,74.84,7,Felipe Hernández #4,Laredo United,70.76,174.63,97.52,163.29,435.45,Single-ply,SBD,M
Boys,74.84,8,John Trevino,Hebbronville,71.21,136.08,90.72,188.24,415.04,Single-ply,SBD,M
Boys,74.84,9,Sergio Garcia,Laredo Nixon,74.12,158.76,92.99,163.29,415.04,Single-ply,SBD,M
Boys,74.84,10,David Reyes,Laredo Martin,73.94,142.88,83.91,174.63,401.43,Single-ply,SBD,M
Boys,74.84,11,Javier Martinez,Laredo Alexander,70.22,127.01,72.57,142.88,342.46,Single-ply,SBD,M
Boys,74.84,12,Armando Martinez,Laredo Cigarroa,73.94,133.81,68.04,120.2,322.05,Single-ply,SBD,M
Boys,74.84,13,Lucas Mora,Falfurrias,72.21,86.18,52.16,124.74,263.08,Single-ply,SBD,M
Boys,82.1,1,Dylan Vasquez,Falfurrias,77.75,181.44,102.06,192.78,476.27,Single-ply,SBD,M
Boys,82.1,2,Daniel Briones,Laredo United South,78.2,167.83,102.06,183.7,453.59,Single-ply,SBD,M
Boys,82.1,3,Joel Elizondo,Zapata,78.65,158.76,115.67,176.9,451.32,Single-ply,SBD,M
Boys,82.1,4,Adrian Munoz,Laredo Martin,81.56,165.56,102.06,183.7,451.32,Single-ply,SBD,M
Boys,82.1,5,Marco DeLuna,Laredo United South,78.47,167.83,104.33,176.9,449.06,Single-ply,SBD,M
Boys,82.1,6,David Galvan,Laredo Cigarroa,81.56,149.69,90.72,190.51,430.91,Single-ply,SBD,M
Boys,82.1,7,Diego Chapa,Laredo Cigarroa,80.2,158.76,83.91,176.9,419.57,Single-ply,SBD,M
Boys,82.1,8,Frank Garcia,Laredo Martin,81.47,156.49,74.84,174.63,405.97,Single-ply,SBD,M
Boys,82.1,9,Jaime Hinojosa,Laredo Alexander,79.38,147.42,79.38,170.1,396.89,Single-ply,SBD,M
Boys,82.1,10,Randall Hinojosa,Laredo Alexander,79.47,142.88,92.99,156.49,392.36,Single-ply,SBD,M
Boys,82.1,11,Diego Perez #5,Laredo Alexander,80.01,142.88,90.72,154.22,387.82,Single-ply,SBD,M
Boys,82.1,12,Benito Orozco,Laredo Martin,79.83,131.54,104.33,142.88,378.75,Single-ply,SBD,M
Boys,89.81,1,Rene Saenz,Hebbronville,87.54,231.33,115.67,195.04,542.04,Single-ply,SBD,M
Boys,89.81,2,Victor Ramos,Laredo United South,84.37,179.17,111.13,201.85,492.15,Single-ply,SBD,M
Boys,89.81,3,Ac Martinez,Laredo United,86.64,204.12,88.45,197.31,489.88,Single-ply,SBD,M
Boys,89.81,4,Jose Herrera,Laredo United,89.63,190.51,97.52,158.76,446.79,Single-ply,SBD,M
Boys,89.81,5,Daniel Barrera,Hebbronville,87.27,149.69,115.67,174.63,439.98,Single-ply,SBD,M
Boys,89.81,6,Joe Guevarra,Laredo Martin,83.91,174.63,79.38,181.44,435.45,Single-ply,SBD,M
Boys,89.81,7,Carlos Martinez #17,Laredo Alexander,83.91,172.37,120.2,113.4,405.97,Single-ply,SBD,M
Boys,89.81,8,Andrew Garza,Falfurrias,85.82,124.74,97.52,156.49,378.75,Single-ply,SBD,M
Boys,89.81,9,Frank Rossi,Hebbronville,87.27,138.35,72.57,149.69,360.61,Single-ply,SBD,M
Boys,89.81,DQ,Eugenio Perez,Laredo Alexander,84.55,142.88,,172.37,,Single-ply,SBD,M
Boys,99.79,1,Erik Fernandez,Laredo Nixon,98.25,217.72,149.69,217.72,585.13,Single-ply,SBD,M
Boys,99.79,2,Jose Vela,Falfurrias,99.79,226.8,115.67,226.8,569.26,Single-ply,SBD,M
Boys,109.77,3,Heriberto Canales,Hebbronville,100.02,231.33,129.27,206.38,566.99,Single-ply,SBD,M
Boys,109.77,4,Guadalupe Gonzalez,Zapata,99.97,226.8,115.67,183.7,526.17,Single-ply,SBD,M
Boys,99.79,5,Mark Duron,Laredo Martin,96.52,195.04,129.27,197.31,521.63,Single-ply,SBD,M
Boys,99.79,6,Santos Alvarado,Laredo United,99.79,188.24,129.27,192.78,510.29,Single-ply,SBD,M
Boys,99.79,7,Angel Pena,Falfurrias,91.26,192.78,104.33,190.51,487.61,Single-ply,SBD,M
Boys,99.79,8,Max Flores,Laredo Alexander,98.25,170.1,108.86,185.97,464.93,Single-ply,SBD,M
Boys,99.79,9,Jorge Martinez,Laredo United,94.8,176.9,90.72,192.78,460.4,Single-ply,SBD,M
Boys,99.79,10,Luis Botello,Laredo Nixon,97.52,163.29,113.4,172.37,449.06,Single-ply,SBD,M
Boys,99.79,11,Rogelio Rodriguez,Zapata,96.16,149.69,102.06,185.97,437.72,Single-ply,SBD,M
Boys,109.77,12,Silvestre Bustamante,Zapata,99.88,145.15,104.33,163.29,412.77,Single-ply,SBD,M
Boys,99.79,DQ,Carlos Muñoz,Laredo Nixon,96.16,195.04,,,,Single-ply,SBD,M
Boys,109.77,1,Victor Martinez,Laredo Martin,108.68,267.62,158.76,213.19,639.57,Single-ply,SBD,M
Boys,109.77,2,Ricky Martinez,Laredo United,107.5,254.01,142.88,192.78,589.67,Single-ply,SBD,M
Boys,109.77,3,Rolando Garza,Hebbronville,109.41,204.12,127.01,215.46,546.58,Single-ply,SBD,M
Boys,109.77,4,Clarence Burdett,Falfurrias,108.14,204.12,124.74,188.24,517.1,Single-ply,SBD,M
Boys,109.77,5,Christian Rosas,Laredo Alexander,104.24,197.31,113.4,201.85,512.56,Single-ply,SBD,M
Boys,109.77,6,Orlando Rodriguez,Laredo Cigarroa,105.96,183.7,102.06,183.7,469.47,Single-ply,SBD,M
Boys,109.77,7,Victor Nenque,Laredo Nixon,104.33,176.9,95.25,149.69,421.84,Single-ply,SBD,M
Boys,109.77,DQ,Bobby Garza,Falfurrias,104.24,,,,,Single-ply,SBD,M
Boys,124.74,1,Frank Villareal,Laredo Martin,112.49,258.55,142.88,210.92,612.35,Single-ply,SBD,M
Boys,124.74+,2,Eliud Aguero,Laredo Alexander,124.92,206.38,147.42,215.46,569.26,Single-ply,SBD,M
Boys,124.74,3,Jorge Gutierrez,Zapata,112.49,201.85,149.69,208.65,560.19,Single-ply,SBD,M
Boys,124.74,4,Jaime Cardona,Laredo Nixon,118.3,226.8,117.93,201.85,546.58,Single-ply,SBD,M
Boys,124.74,5,Francisco Moreno #1,Zapata,111.58,226.8,97.52,199.58,523.9,Single-ply,SBD,M
Boys,124.74,6,Justin Hernandez,Laredo Nixon,111.13,192.78,106.59,183.7,483.08,Single-ply,SBD,M
Boys,124.74,7,Manuel Navarro,Zapata,121.83,181.44,120.2,174.63,476.27,Single-ply,SBD,M
Boys,124.74,8,Gilbert Hernandez,Laredo Cigarroa,120.29,172.37,106.59,167.83,446.79,Single-ply,SBD,M
Boys,124.74+,1,Jose Flores #2,Laredo Cigarroa,145.42,272.16,136.08,204.12,612.35,Single-ply,SBD,M
Boys,124.74+,2,Eduardo Sanchez,Zapata,129.27,204.12,122.47,183.7,510.29,Single-ply,SBD,M
Boys,124.74+,3,Rudy Flores,Laredo United South,133.81,154.22,111.13,197.31,462.66,Single-ply,SBD,M
Boys,124.74+,4,Leo Espinoza,Laredo Martin,134.26,156.49,95.25,183.7,435.45,Single-ply,SBD,M
Boys,124.74+,DQ,Alexis Manrique,Laredo United,132.9,,,,,Single-ply,SBD,M
Boys,,NS,Edgar Rivera,Laredo Martin,,,,,,Single-ply,SBD,M
Boys,,NS,Jose Coreas,Laredo Cigarroa,,,,,,Single-ply,SBD,M
Boys,,NS,Jairo Morales,Laredo Cigarroa,,,,,,Single-ply,SBD,M
Boys,,NS,Juan Muniz,Laredo Cigarroa,,,,,,Single-ply,SBD,M
Boys,,NS,Sebastian Betancourt,Hebbronville,,,,,,Single-ply,SBD,M
Boys,,NS,Esteban Arredondo,Hebbronville,,,,,,Single-ply,SBD,M
Boys,,NS,Marco Cantu,Hebbronville,,,,,,Single-ply,SBD,M
Boys,,NS,Evan Montalvo,Hebbronville,,,,,,Single-ply,SBD,M
