Division,WeightClassKg,Place,Name,Team,BodyweightKg,Best3SquatKg,Best3BenchKg,Best3DeadliftKg,TotalKg,Equipment,Event,Sex,BirthDate
Boys,55.79,DQ,Kirkland Cobb,White Oak,54.43,158.76,,,,Single-ply,SBD,M,
Boys,67.13,1,Nicholas Johnson,White Oak,67.04,136.08,88.45,136.08,360.61,Single-ply,SBD,M,
Boys,74.84,1,Omari Jones,Diana New Diana,73.94,167.83,95.25,199.58,462.66,Single-ply,SBD,M,
Boys,74.84,2,Jesse Pratt,White Oak,71.21,181.44,102.06,151.95,435.45,Single-ply,SBD,M,
Boys,74.84,3,Davy Mapps,Diana New Diana,70.31,145.15,74.84,163.29,383.29,Single-ply,SBD,M,
Boys,74.84,4,Adam Caldwell,White Oak,70.31,117.93,61.23,142.88,322.05,Single-ply,SBD,M,
Boys,74.84,5,Logan Marsh,Pittsburg,73.94,124.74,56.7,133.81,315.25,Single-ply,SBD,M,
Boys,82.1,1,Holden Hodges,White Oak,80.74,210.92,106.59,210.92,528.44,Single-ply,SBD,M,
Boys,82.1,2,Christian Denning,White Oak,77.11,151.95,86.18,170.1,408.23,Single-ply,SBD,M,
Boys,82.1,3,Jacob Johnston,Diana New Diana,80.74,129.27,90.72,133.81,353.8,Single-ply,SBD,M,
Boys,89.81,1,Logan Shiflet,Diana New Diana,88.45,167.83,113.4,181.44,462.66,Single-ply,SBD,M,
Boys,89.81,2,Braylon Franklin,Diana New Diana,84.37,129.27,88.45,172.37,390.09,Single-ply,SBD,M,
Boys,99.79,1,Caron Whitworth,Diana New Diana,98.43,226.8,108.86,208.65,544.31,Single-ply,SBD,M,
Boys,99.79,2,Nick Guel,Pittsburg,94.8,192.78,113.4,172.37,478.54,Single-ply,SBD,M,
Boys,99.79,3,Edwin Lopez,Pittsburg,94.8,183.7,113.4,158.76,455.86,Single-ply,SBD,M,
Boys,99.79,4,Mason Calvery,Diana New Diana,94.35,124.74,92.99,158.76,376.48,Single-ply,SBD,M,
Boys,99.79,5,Collin Wheat,White Oak,95.71,129.27,79.38,151.95,360.61,Single-ply,SBD,M,
Boys,99.79,6,Josh McGee,Diana New Diana,97.52,113.4,79.38,127.01,319.78,Single-ply,SBD,M,
Boys,109.77,1,Keldrick Henderson,Pittsburg,102.51,183.7,113.4,170.1,467.2,Single-ply,SBD,M,
Boys,109.77,2,Robert Aguilar,Diana New Diana,104.33,147.42,92.99,158.76,399.16,Single-ply,SBD,M,
Boys,109.77,3,Gage Davison,White Oak,101.06,149.69,72.57,149.69,371.95,Single-ply,SBD,M,
Boys,109.77,4,Garrett Christie,Diana New Diana,109.77,120.2,74.84,165.56,360.61,Single-ply,SBD,M,
Boys,124.74,1,Race Rountree,Diana New Diana,118.39,170.1,97.52,170.1,437.72,Single-ply,SBD,M,
Boys,139.71,1,Riley Maxwell,Diana New Diana,127.01,199.58,127.01,181.44,508.02,Single-ply,SBD,M,
Boys,139.71,DQ,Juan Hernandez,Pittsburg,130.18,190.51,,,,Single-ply,SBD,M,
