Place,Name,Sex,Event,Division,WeightClassKg,Equipment,BirthYear,State,BodyweightKg,Squat1Kg,Squat2Kg,Squat3Kg,Best3SquatKg,Bench1Kg,Bench2Kg,Bench3Kg,Best3BenchKg,Deadlift1Kg,Deadlift2Kg,Deadlift3Kg,Best3DeadliftKg,TotalKg
1,Ashlynn Arnold,F,SBD,F-O,57,Single-ply,2001,WI,54.9,90,97.5,-105,97.5,35,42.5,47.5,47.5,92.5,100,-105,100,245
G,Dawn Maroscher,F,SBD,FR-G,72,Raw,1968,IL,68.3,102.5,112.5,120,120,80,85,87.5,87.5,140,150,157.5,157.5,365
G,Mariah Hawley,F,SBD,FR-G,72,Raw,1998,AZ,67.6,85,95,105,105,37.5,42.5,-47.5,42.5,92.5,102.5,-107.5,102.5,250
1,Meghan Zillmer,F,SBD,FR-Jr,57,Raw,1997,WI,56.3,60,70,-77.5,70,37.5,40,42.5,42.5,80,90,97.5,97.5,210
1,Maria Baltazar,F,SBD,FR-T3,72,Raw,1999,WI,70.5,75,-82.5,-87.5,75,37.5,-42.5,-42.5,37.5,102.5,110,-127.5,110,222.5
1,McKenzie Curtis,F,SBD,FR-Jr,84,Raw,1997,WI,82.6,142.5,-147.5,150,150,75,82.5,-85,82.5,145,155,160,160,392.5
2,Sami Worden,F,SBD,FR-T3,84,Raw,1999,WI,74.7,105,115,120,120,52.5,57.5,60,60,132.5,142.5,150,150,330
3,Victoria Kerian,F,SBD,FR-T3,84,Raw,1999,WI,82,72.5,-77.5,-77.5,72.5,37.5,-42.5,-45,37.5,115,-120,-120,115,225
1,Anne Hoffman,F,SBD,FR-M,57,Raw,1962,WI,53.8,85,-92.5,97.5,97.5,-47.5,-52.5,52.5,52.5,115,120,-130,120,270
1,Carrie Brown-Schmidt,F,SBD,FR-M,72,Raw,1978,WI,66.7,67.5,77.5,-92.5,77.5,52.5,57.5,-60,57.5,110,125,-137.5,125,260
DQ,Darlene Konkel,F,SBD,FR-M,72,Raw,1949,WI,69.9,-42.5,-47.5,-52.5,,25,-30,-30,25,75,87.5,92.5,92.5,
1,Sara Stasila,F,SBD,FR-M,84,Raw,1975,WI,77.7,105,117.5,127.5,127.5,57.5,-62.5,-62.5,57.5,120,130,135,135,320
2,Amy Zynda,F,SBD,FR-M,84,Raw,1977,WI,77.1,77.5,-82.5,82.5,82.5,42.5,47.5,50,50,95,102.5,110,110,242.5
1,Vicky Parsley,F,SBD,FR-M,84+,Raw,1978,WI,97.3,125,135,142.5,142.5,67.5,70,72.5,72.5,125,140,150,150,365
2,Rachel Lavin,F,SBD,FR-M,84+,Raw,1978,WI,95,65,70,80,80,45,50,-57.5,50,102.5,115,125,125,255
1,Charmaine Tabilas,F,SBD,FR-O,52,Raw,1992,WI,50.9,85,-90,-90,85,47.5,52.5,-55,52.5,112.5,117.5,122.5,122.5,260
1,Jessica Wallin,F,SBD,FR-O,57,Raw,1989,WI,56.4,-75,75,80,80,40,45,-50,45,105,107.5,112.5,112.5,237.5
2,Leah Martin,F,SBD,FR-O,57,Raw,1989,WI,56,-75,75,80,80,40,45,-47.5,45,75,85,-95,85,210
1,Brittney Wilinski,F,SBD,FR-O,63,Raw,1990,WI,60.9,110,115,120,120,60,65,67.5,67.5,125,132.5,137.5,137.5,325
2,Hannah Slater,F,SBD,FR-O,63,Raw,2000,WI,62,115,122.5,-127.5,122.5,52.5,57.5,60,60,117.5,130,135,135,317.5
3,Crystal Helmer,F,SBD,FR-O,63,Raw,1980,WI,62.5,85,90,97.5,97.5,40,47.5,-52.5,47.5,117.5,122.5,137.5,137.5,282.5
4,AJ Halbach,F,SBD,FR-O,63,Raw,1984,WI,60.4,70,75,85,85,40,47.5,52.5,52.5,115,-122.5,125,125,262.5
1,Corinna Senn,F,SBD,FR-O,72,Raw,1988,WI,71.3,135,-142.5,-150,135,-80,80,-85,80,130,135,-150,135,350
2,Katherine Potkonjak,F,SBD,FR-O,72,Raw,1992,WI,64.3,87.5,102.5,-110,102.5,40,42.5,45,45,122.5,130,-137.5,130,277.5
3,Carrie Brown-Schmidt,F,SBD,FR-O,72,Raw,1978,WI,66.7,67.5,77.5,-92.5,77.5,52.5,57.5,-60,57.5,110,125,-137.5,125,260
4,Jennifer Prill,F,SBD,FR-O,72,Raw,1990,WI,69.1,60,75,85,85,52.5,57.5,-62.5,57.5,65,80,97.5,97.5,240
5,Maria Baltazar,F,SBD,FR-O,72,Raw,1999,WI,70.5,75,-82.5,-87.5,75,37.5,-42.5,-42.5,37.5,102.5,110,-127.5,110,222.5
1,McKenzie Curtis,F,SBD,FR-O,84,Raw,1997,WI,82.6,142.5,-147.5,150,150,75,82.5,-85,82.5,145,155,160,160,392.5
2,Sarah Fincutter,F,SBD,FR-O,84,Raw,1993,WI,72.6,-125,-125,125,125,-62.5,-62.5,62.5,62.5,142.5,150,160,160,347.5
3,Sami Worden,F,SBD,FR-O,84,Raw,1999,WI,74.7,105,115,120,120,52.5,57.5,60,60,132.5,142.5,150,150,330
4,Sara Stasila,F,SBD,FR-O,84,Raw,1975,WI,77.7,105,117.5,127.5,127.5,57.5,-62.5,-62.5,57.5,120,130,135,135,320
5,Amy Zynda,F,SBD,FR-O,84,Raw,1977,WI,77.1,77.5,-82.5,82.5,82.5,42.5,47.5,50,50,95,102.5,110,110,242.5
6,Victoria Kerian,F,SBD,FR-O,84,Raw,1999,WI,82,72.5,-77.5,-77.5,72.5,37.5,-42.5,-45,37.5,115,-120,-120,115,225
1,Vicky Parsley,F,SBD,FR-O,84+,Raw,1978,WI,97.3,125,135,142.5,142.5,67.5,70,72.5,72.5,125,140,150,150,365
2,Danielle Larsen,F,SBD,FR-O,84+,Raw,1990,WI,98.1,102.5,110,117.5,117.5,47.5,55,-62.5,55,112.5,125,137.5,137.5,310
3,Sarah Barrett,F,SBD,FR-O,84+,Raw,1979,WI,88,85,87.5,90,90,62.5,67.5,-70,67.5,125,130,137.5,137.5,295
4,Elizabeth Vogel,F,SBD,FR-O,84+,Raw,1989,WI,103.9,95,102.5,105,105,42.5,-50,-50,42.5,125,137.5,145,145,292.5
5,Rachel Lavin,F,SBD,FR-O,84+,Raw,1978,WI,95,65,70,80,80,45,50,-57.5,50,102.5,115,125,125,255
6,Lindsay Arnold,F,SBD,FR-O,84+,Raw,2004,WI,96.9,-47.5,55,67.5,67.5,37.5,40,-45,40,-92.5,95,102.5,102.5,210
1,Derek Byrne,M,SBD,M-M,105,Single-ply,1973,WI,100.4,-75,90,-110,90,60,-75,75,75,-115,142.5,165,165,330
1,Michael Behrens,M,SBD,M-O,93,Single-ply,1999,WI,87.9,-150,-150,150,150,110,117.5,122.5,122.5,167.5,182.5,-190,182.5,455
G,Gary Mayeux Jr,M,SBD,MR-G,83,Raw,1984,MN,75.2,170,180,190,190,112.5,115,117.5,117.5,205,215,225,225,532.5
G,Joshua Gregory,M,SBD,MR-G,83,Raw,1997,OH,77.9,180,-190,-190,180,117.5,125,-130,125,-212.5,-212.5,212.5,212.5,517.5
G,Alexander Wanous,M,SBD,MR-G,93,Raw,1998,MN,93,165,175,180,180,115,-120,-120,115,185,195,205,205,500
G,Haydn Luker,M,SBD,MR-G,105,Raw,1993,MN,100,130,137.5,147.5,147.5,100,107.5,-115,107.5,162.5,177.5,-185,177.5,432.5
1,Ben Krysiak,M,SBD,MR-Jr,66,Raw,1997,WI,63,132.5,137.5,142.5,142.5,82.5,87.5,-92.5,87.5,-165,172.5,-182.5,172.5,402.5
1,Seth Morrison,M,SBD,MR-Jr,74,Raw,1998,WI,71.4,155,167.5,-180,167.5,105,110,-112.5,110,170,180,187.5,187.5,465
1,Gage Stuttgen,M,SBD,MR-Jr,83,Raw,1995,WI,81.5,-175,175,185,185,137.5,145,150,150,192.5,207.5,220,220,555
2,Kevin Salazar Medrano,M,SBD,MR-Jr,83,Raw,1995,WI,78.3,127.5,142.5,145,145,87.5,97.5,100,100,165,177.5,187.5,187.5,432.5
1,Oscar Jamaica,M,SBD,MR-Jr,93,Raw,1996,WI,90.5,215,230,235,235,145,155,-160,155,235,252.5,262.5,262.5,652.5
2,Trey Storms,M,SBD,MR-Jr,93,Raw,1995,WI,91,210,-220,-227.5,210,155,162.5,-167.5,162.5,235,250,260,260,632.5
3,James McCarthy #2,M,SBD,MR-Jr,93,Raw,1996,WI,87.4,145,155,-167.5,155,-100,-107.5,107.5,107.5,185,197.5,215,215,477.5
4,Trevor Cross,M,SBD,MR-T3,93,Raw,1999,WI,89.3,-142.5,-142.5,142.5,142.5,102.5,107.5,112.5,112.5,182.5,192.5,205,205,460
5,Michael Behrens,M,SBD,MR-T3,93,Raw,1999,WI,87.9,-150,-150,150,150,110,117.5,122.5,122.5,167.5,182.5,-190,182.5,455
1,Albert Zollweg,M,SBD,MR-Jr,105,Raw,1995,WI,96.5,170,180,190,190,-102.5,110,120,120,225,242.5,-265,242.5,552.5
2,Jonathan Gutierrez,M,SBD,MR-T3,105,Raw,1999,WI,99.2,-135,155,170,170,105,115,-125,115,175,185,205,205,490
1,Shawn Turner,M,SBD,MR-Jr,120,Raw,1997,WI,110.8,-105,105,110,110,100,105,112.5,112.5,185,195,-210,195,417.5
DQ,Samuel Papendorf,M,SBD,MR-Jr,120,Raw,1996,WI,112.3,-185,-185,-185,,110,115,122.5,122.5,205,227.5,-235,227.5,
1,Henry Fellner,M,SBD,MR-M,74,Raw,1965,WI,69.4,102.5,107.5,117.5,117.5,82.5,90,-97.5,90,137.5,147.5,-157.5,147.5,355
1,Aaron Fay,M,SBD,MR-M,105,Raw,1978,WI,98.4,125,142.5,152.5,152.5,102.5,115,-125,115,165,185,-190,185,452.5
1,Jon Brown-Schmidt,M,SBD,MR-M,120,Raw,1977,WI,116.9,-200,200,227.5,227.5,147.5,160,-170,160,265,277.5,285,285,672.5
1,Richard Johnson,M,SBD,MR-M,120+,Raw,1977,WI,128.1,102.5,125,-142.5,125,85,102.5,-107.5,102.5,102.5,125,142.5,142.5,370
1,Seth Morrison,M,SBD,MR-O,74,Raw,1998,WI,71.4,155,167.5,-180,167.5,105,110,-112.5,110,170,180,187.5,187.5,465
2,Nathan Rather,M,SBD,MR-O,74,Raw,2000,WI,69.4,135,142.5,152.5,152.5,80,90,-97.5,90,170,180,190,190,432.5
1,Ryan La Count,M,SBD,MR-O,83,Raw,1988,WI,82,185,205,-220,205,142.5,152.5,-162.5,152.5,202.5,212.5,227.5,227.5,585
2,Nicholas Kearns,M,SBD,MR-O,83,Raw,1990,WI,81.3,185,195,-205,195,140,145,-147.5,145,195,210,220,220,560
3,Gage Stuttgen,M,SBD,MR-O,83,Raw,1995,WI,81.5,-175,175,185,185,137.5,145,150,150,192.5,207.5,220,220,555
4,Zach Menden,M,SBD,MR-O,83,Raw,1992,WI,81.4,-182.5,182.5,187.5,187.5,112.5,117.5,122.5,122.5,195,202.5,-205,202.5,512.5
5,Anthony Maas,M,SBD,MR-O,83,Raw,2000,WI,80.7,165,177.5,-182.5,177.5,100,107.5,-112.5,107.5,205,-217.5,217.5,217.5,502.5
6,Earl Uhl III,M,SBD,MR-O,83,Raw,1991,WI,80.5,142.5,170,180,180,102.5,115,-125,115,182.5,200,-210,200,495
7,Sam Dehring,M,SBD,MR-O,83,Raw,1999,WI,81.2,182.5,-200,-200,182.5,105,112.5,120,120,150,165,182.5,182.5,485
8,Steve Gotter,M,SBD,MR-O,83,Raw,1990,WI,76.8,135,147.5,160,160,100,110,-117.5,110,175,190,205,205,475
9,Kevin Salazar Medrano,M,SBD,MR-O,83,Raw,1995,WI,78.3,127.5,142.5,145,145,87.5,97.5,100,100,165,177.5,187.5,187.5,432.5
1,Oscar Jamaica,M,SBD,MR-O,93,Raw,1996,WI,90.5,215,230,235,235,145,155,-160,155,235,252.5,262.5,262.5,652.5
2,Trey Storms,M,SBD,MR-O,93,Raw,1995,WI,91,210,-220,-227.5,210,155,162.5,-167.5,162.5,235,250,260,260,632.5
3,Derrick Walker,M,SBD,MR-O,93,Raw,1989,WI,85.2,130,182.5,192.5,192.5,130,-142.5,-142.5,130,237.5,247.5,255,255,577.5
4,Samuel Engle,M,SBD,MR-O,93,Raw,1992,WI,88.5,160,170,-182.5,170,107.5,112.5,-117.5,112.5,202.5,215,227.5,227.5,510
5,James McCarthy #2,M,SBD,MR-O,93,Raw,1996,WI,87.4,145,155,-167.5,155,-100,-107.5,107.5,107.5,185,197.5,215,215,477.5
6,Reid Koeppel,M,SBD,MR-O,93,Raw,2002,WI,86,152.5,170,182.5,182.5,92.5,97.5,-105,97.5,152.5,175,192.5,192.5,472.5
7,Trevor Cross,M,SBD,MR-O,93,Raw,1999,WI,89.3,-142.5,-142.5,142.5,142.5,102.5,107.5,112.5,112.5,182.5,192.5,205,205,460
1,Kory Adler,M,SBD,MR-O,105,Raw,1987,WI,101.6,207.5,210,215,215,120,130,135,135,-260,260,275,275,625
2,James Mani,M,SBD,MR-O,105,Raw,1990,WI,93.4,165,192.5,210,210,102.5,117.5,-125,117.5,220,245,257.5,257.5,585
3,Albert Zollweg,M,SBD,MR-O,105,Raw,1995,WI,96.5,170,180,190,190,102.5,110,120,120,225,242.5,-265,242.5,552.5
4,Jonathan Gutierrez,M,SBD,MR-O,105,Raw,1999,WI,99.2,-135,155,170,170,105,115,-125,115,175,185,205,205,490
5,Aaron Fay,M,SBD,MR-O,105,Raw,1978,WI,98.4,125,142.5,152.5,152.5,102.5,115,-125,115,165,185,-190,185,452.5
1,Jon Brown-Schmidt,M,SBD,MR-O,120,Raw,1977,WI,116.9,-200,200,227.5,227.5,147.5,160,-170,160,265,277.5,285,285,672.5
2,Reece Heyerdahl,M,SBD,MR-O,120,Raw,2001,WI,105.9,215,227.5,-232.5,227.5,125,132.5,140,140,230,262.5,277.5,277.5,645
3,Bruno Bustos,M,SBD,MR-O,120,Raw,1988,WI,112.6,182.5,190,200,200,112.5,120,-130,120,210,230,-245,230,550
4,Shawn Turner,M,SBD,MR-O,120,Raw,1997,WI,110.8,-105,105,110,110,100,105,112.5,112.5,185,195,-210,195,417.5
DQ,Samuel Papendorf,M,SBD,MR-O,120,Raw,1996,WI,112.3,-185,-185,-185,,110,115,122.5,122.5,205,227.5,-235,227.5,
DQ,Zachary Wagner,M,SBD,MR-O,120,Raw,2000,WI,117,-200,-200,-200,,122.5,130,-135,130,240,250,-265,250,
1,Richard Johnson,M,SBD,MR-O,120+,Raw,1977,WI,128.1,102.5,125,-142.5,125,85,102.5,-107.5,102.5,102.5,125,142.5,142.5,370
