﻿                                                                                                      Team Bench UN 2010                                     14/03/2010
BDFPF                           Squat Unequiped       Verslag
W.Cat    Name                                                                 Age Cat   BW            1                    2           3          4          Points
58,5 KG         Wuyts           Helen             V   Gilberts Gym       18   T3             57,60    105                  112,5       120        0          101,81
- 70 KG         Verkain         Jasmien           V   Isogym             18   T3             67,10    60                   -------70   -70        0          46,962
- 70 KG         Lerot           Viviane               V     Castors      51   M3             65,80    50                   57,5        62,5       0          49,744
67,5 KG         Eeckhout        Laurens               M   Healtfactor    14   T1             64,00    90                   95          100        0          76,25
67,5 KG         Peeters         Alan              M   Gilberts Gym       16   T2             66,70    105                  112,5       120        0          88,044
67,5 KG         Slachmuylders   Bjorn                 M Planet Fitness   21   JR             67,50    130                  140         -----150   0          101,61
75 KG           Marieen         Lenn              M   Gilberts Gym       18   T3             74,40    150                  160         170        0          113,68
75 KG           Lefebvre        Jonas                 M     KBBC         18   T3             72,20    100                  110         -----120   0          75,361
75 KG           Callemeyn       Johny                 M    Fit 4 fun     56   M4             75,00    140                  150         155        0          103
82,5 KG         Sudarminto      Indra                 M Planet Fitness   19   T3             79,80    170                  180         190,5      0          120,8
82,5 KG         Goethals        Dries                 M     KBBC         24   SR             82,50    120                  130         140        0          86,702
82,5 KG         Hallewaert      Bart                  M    Isogym        41   M1             80,60    155                  165         172,5      0          108,59
90 KG           Ramboer         Maxim                 M    Isogym        16   T2             86,80    90                   100         110        0          65,846
90 KG           Boniver         Tim                   M Planet Fitness   21   JR             83,70    155                  162,5       167,5      0          102,71
90 KG           Verbeke         Beny                  M    Isogym        44   M1             86,20    140                  155         165        0          99,215
100 KG          Theyssens       Martin                M    Franco        70   M7             91,10    130                  140         147,5      -----15-   85,727
110 KG          Van Roy         Yannick               M Planet Fitness   18   T3             104,50   170                  185         192,5      -----19-   104,84
110 KG          Malotteau       Jean-Louis M          Castors            46   M2             108,80   125                  135         145        0          78,01
125 KG          Dechamps        Sebastien             M    Castors       16   T2             125,00   235                  245         -----260   0          127,65
125 KG          Dechamps        Jerome                M    Castors       22   JR             122,90   225                  240         255        0          133,59
125 KG          Duflon          David                 M     KBBC         35   SR             110,70   100                  120         135        0          72,32
125 KG          Collart         Jean-Luc              M    Castors       50   M3             120,80   260                  272,5       -----300   0          143,39
