Division,WeightClassKg,Place,Name,Team,BodyweightKg,Best3SquatKg,Best3BenchKg,Best3DeadliftKg,TotalKg,Equipment,Event,Sex,BirthDate
Boys,51.71,1,Jordan Barlagne,Leonard,51.35,122.47,70.31,136.08,328.85,Single-ply,SBD,M,
Boys,55.79,1,Christian Brock,Bonham,55.61,113.4,65.77,115.67,294.84,Single-ply,SBD,M,
Boys,67.13,1,Josh Barlagne,Leonard,65.32,181.44,111.13,176.9,469.47,Single-ply,SBD,M,
Boys,67.13,2,Mason Underwood,Leonard,66.32,145.15,95.25,161.03,401.43,Single-ply,SBD,M,
Boys,67.13,3,Mario Gonzales,Whitewright,64.41,133.81,88.45,142.88,365.14,Single-ply,SBD,M,
Boys,74.84,1,Mason Rogers,Leonard,71.03,156.49,83.91,206.38,446.79,Single-ply,SBD,M,
Boys,74.84,2,Truett Holloway,Whitewright,72.76,151.95,104.33,158.76,415.04,Single-ply,SBD,M,
Boys,82.1,1,John Wheeler,Leonard,81.37,197.31,154.22,199.58,551.11,Single-ply,SBD,M,
Boys,82.1,2,Dalton Doyle,Leonard,79.38,185.97,122.47,199.58,508.02,Single-ply,SBD,M,
Boys,82.1,3,Chandler Holman,Leonard,81.92,170.1,95.25,154.22,419.57,Single-ply,SBD,M,
Boys,82.1,4,Carson Arris,Bonham,78.2,140.61,83.91,142.88,367.41,Single-ply,SBD,M,
Boys,82.1,DQ,Caleb Arris,Bonham,81.74,,,,,Single-ply,SBD,M,
Boys,89.81,1,Xander Womack,Allen,89.63,249.48,233.6,217.72,700.8,Single-ply,SBD,M,
Boys,89.81,2,Angel Cruz,Whitewright,88.9,219.99,147.42,213.19,580.6,Single-ply,SBD,M,
Boys,89.81,3,Jacory Bush,Leonard,88.45,201.85,149.69,190.51,542.04,Single-ply,SBD,M,
Boys,89.81,4,Kasey Sanders,Whitewright,84.91,208.65,138.35,181.44,528.44,Single-ply,SBD,M,
Boys,89.81,5,Maliek Harris,Leonard,88.09,199.58,102.06,204.12,505.76,Single-ply,SBD,M,
Boys,89.81,6,Reese Futch,Whitewright,88,145.15,68.04,151.95,365.14,Single-ply,SBD,M,
Boys,99.79,1,Shane Davis,Whitewright,99.34,285.76,190.51,258.55,734.82,Single-ply,SBD,M,
Boys,99.79,2,Braylin Garcia,Leonard,94.17,208.65,158.76,181.44,548.85,Single-ply,SBD,M,
Boys,109.77,1,Marc Anthony Gonzales,Whitewright,108.32,244.94,149.69,244.94,639.57,Single-ply,SBD,M,
Boys,109.77,2,Brayden Harris,Leonard,109.32,240.4,163.29,226.8,630.49,Single-ply,SBD,M,
Boys,109.77,3,Justin McBride,Bonham,107.68,247.21,138.35,185.97,571.53,Single-ply,SBD,M,
Boys,109.77,4,Bradley Carruth,Bonham,108.41,210.92,129.27,206.38,546.58,Single-ply,SBD,M,
Boys,109.77,5,Aaron Weeks,Bonham,107.05,219.99,108.86,172.37,501.22,Single-ply,SBD,M,
Boys,124.74,1,Jack Porter,Bonham,116.12,265.35,142.88,213.19,621.42,Single-ply,SBD,M,
Boys,139.71+,1,Braxton Armstrong,Leonard,149.87,195.04,127.01,149.69,471.74,Single-ply,SBD,M,
