Division,WeightClassKg,Place,Name,Team,BodyweightKg,Best3SquatKg,Best3BenchKg,Best3DeadliftKg,TotalKg,Equipment,Event,Sex
Boys,51.71,1,Juan Chapa,San Antonio Southside,51.53,163.29,102.06,154.22,419.57,Single-ply,SBD,M
Boys,51.71,2,Angel Bermudez,Poteet,49.17,140.61,88.45,142.88,371.95,Single-ply,SBD,M
Boys,51.71,3,Uriel Solorzano,Jourdanton,51.26,151.95,65.77,138.35,356.07,Single-ply,SBD,M
Boys,51.71,4,Isaiah Lucio,Pearsall,49.99,113.4,83.91,124.74,322.05,Single-ply,SBD,M
Boys,51.71,5,Carlos Ocampo,Natalia,51.35,129.27,54.43,138.35,322.05,Single-ply,SBD,M
Boys,51.71,6,Jarred Herrera,San Antonio Southside,50.62,122.47,65.77,131.54,319.78,Single-ply,SBD,M
Boys,55.79,7,Raul Garcia,Cotulla,51.89,115.67,77.11,124.74,317.51,Single-ply,SBD,M
Boys,55.79,8,Jose Hernandez #3,Karnes City,51.8,113.4,72.57,122.47,308.44,Single-ply,SBD,M
Boys,51.71,9,Jacob Villerreal,Gonzales,50.62,115.67,52.16,106.59,274.42,Single-ply,SBD,M
Boys,55.79,1,Ricky Guerra,Poteet,55.16,176.9,113.4,188.24,478.54,Single-ply,SBD,M
Boys,59.87,2,Matthew Medrano,Pearsall,55.97,154.22,63.5,163.29,381.02,Single-ply,SBD,M
Boys,55.79,3,Jm Elizondo,Pearsall,55.34,140.61,79.38,149.69,369.68,Single-ply,SBD,M
Boys,55.79,4,Traveon Priestley,Comal Canyon,55.16,140.61,79.38,145.15,365.14,Single-ply,SBD,M
Boys,55.79,5,Kade Lopez,San Antonio Southside,55.43,124.74,83.91,154.22,362.87,Single-ply,SBD,M
Boys,55.79,6,Devin McMahan,Stockdale,55.43,124.74,79.38,158.76,362.87,Single-ply,SBD,M
Boys,55.79,7,Albert Alvarez,Jourdanton,54.43,129.27,83.91,127.01,340.19,Single-ply,SBD,M
Boys,55.79,8,Colton Rodriguez,Jourdanton,54.88,136.08,70.31,127.01,333.39,Single-ply,SBD,M
Boys,55.79,DQ,Dylan Tesch,Blanco,53.61,102.06,61.23,,,Single-ply,SBD,M
Boys,55.79,DQ,Philip Alvarado,Blanco,55.16,149.69,92.99,,,Single-ply,SBD,M
Boys,55.79,DQ,Elijah Gonzales,San Antonio East Central,52.44,127.01,77.11,,,Single-ply,SBD,M
Boys,59.87,1,Adam Austin,Del Rio,59.33,176.9,95.25,190.51,462.66,Single-ply,SBD,M
Boys,59.87,2,Tyler Davis,Jourdanton,59.6,165.56,95.25,161.03,421.84,Single-ply,SBD,M
Boys,59.87,3,Tyler Wells,Gonzales,59.6,161.03,81.65,165.56,408.23,Single-ply,SBD,M
Boys,67.13,4,Zach Trujillo,Universal City Randolph,59.96,158.76,95.25,151.95,405.97,Single-ply,SBD,M
Boys,59.87,5,Landon Camacho,Pleasanton,59.42,161.03,102.06,136.08,399.16,Single-ply,SBD,M
Boys,59.87,6,Anthony Holguin,San Marcos,58.79,149.69,88.45,158.76,396.89,Single-ply,SBD,M
Boys,59.87,7,Rene Rodriguez,Pearsall,59.06,136.08,88.45,161.03,385.55,Single-ply,SBD,M
Boys,67.13,8,Joaquin Munoz,Stockdale,59.96,122.47,86.18,165.56,374.21,Single-ply,SBD,M
Boys,59.87,9,Eddie Torres #1,Blanco,57.61,129.27,95.25,145.15,369.68,Single-ply,SBD,M
Boys,59.87,10,Isaac Lopez,Jourdanton,59.24,142.88,88.45,133.81,365.14,Single-ply,SBD,M
Boys,59.87,11,Brandon Herrera,San Antonio Southside,58.79,136.08,90.72,136.08,362.87,Single-ply,SBD,M
Boys,59.87,12,Leonard Barrientes,San Antonio Kennedy,59.15,131.54,81.65,136.08,349.27,Single-ply,SBD,M
Boys,59.87,13,Robert Tappan,Comfort,58.42,108.86,74.84,127.01,310.71,Single-ply,SBD,M
Boys,67.13,14,Alex Gill,Universal City Randolph,59.96,102.06,68.04,122.47,292.57,Single-ply,SBD,M
Boys,67.13,1,Darion McMahan,Stockdale,66.04,238.14,156.49,217.72,612.35,Single-ply,SBD,M
Boys,67.13,2,Matt Valadez,Stockdale,66.13,201.85,127.01,219.99,548.85,Single-ply,SBD,M
Boys,67.13,3,Jose Flores #3,San Antonio Kennedy,63.68,165.56,99.79,183.7,449.06,Single-ply,SBD,M
Boys,67.13,4,Tyler Gould,Pleasanton,66.68,183.7,97.52,163.29,444.52,Single-ply,SBD,M
Boys,67.13,5,Collin Anderson,San Marcos,66.68,154.22,95.25,176.9,426.38,Single-ply,SBD,M
Boys,67.13,6,Jj Aguinaga,Lytle,65.95,156.49,72.57,167.83,396.89,Single-ply,SBD,M
Boys,74.84,7,Chase Horton,Blanco,67.31,149.69,81.65,149.69,381.02,Single-ply,SBD,M
Boys,67.13,8,Toni Lorenzo,Comfort,62.51,136.08,88.45,149.69,374.21,Single-ply,SBD,M
Boys,67.13,9,Noah Rangel,San Antonio Southside,67.13,142.88,72.57,156.49,371.95,Single-ply,SBD,M
Boys,74.84,10,Miguel Rivera,Universal City Randolph,67.31,138.35,74.84,158.76,371.95,Single-ply,SBD,M
Boys,67.13,11,Justin Alexander,Universal City Randolph,65.05,120.2,92.99,142.88,356.07,Single-ply,SBD,M
Boys,67.13,12,Joey Jimenez,Del Rio,66.13,136.08,74.84,140.61,351.53,Single-ply,SBD,M
Boys,67.13,13,Albian Leyva,San Marcos,62.96,133.81,65.77,138.35,337.93,Single-ply,SBD,M
Boys,67.13,14,Hunter Rust,Comfort,61.87,90.72,65.77,104.33,260.82,Single-ply,SBD,M
Boys,67.13,DQ,Jacob Hernandez,Comfort,66.68,,,,,Single-ply,SBD,M
Boys,67.13,DQ,Nathan Medrano,Lytle,66.41,,,,,Single-ply,SBD,M
Boys,67.13,DQ,Ryan Clark #7,Universal City Randolph,61.23,106.59,65.77,,,Single-ply,SBD,M
Boys,82.1,1,Taylor Raynard,Comal Canyon,75.02,226.8,133.81,226.8,587.4,Single-ply,SBD,M
Boys,74.84,2,Joshua Moreno,Comal Canyon,74.21,233.6,136.08,215.46,585.13,Single-ply,SBD,M
Boys,74.84,3,Josh Sherwood,San Antonio East Central,72.67,201.85,136.08,224.53,562.45,Single-ply,SBD,M
Boys,82.1,4,DJ Gonzales,Gonzales,75.02,226.8,117.93,217.72,562.45,Single-ply,SBD,M
Boys,82.1,5,Mark Ruiz,Cotulla,75.02,217.72,129.27,197.31,544.31,Single-ply,SBD,M
Boys,74.84,6,Logan Pennycook,Del Rio,74.03,183.7,124.74,226.8,535.24,Single-ply,SBD,M
Boys,74.84,7,Craig Wells,San Antonio Brooks Academy,73.03,195.04,117.93,213.19,526.17,Single-ply,SBD,M
Boys,82.1,8,Cj Felux,Floresville,75.02,199.58,104.33,222.26,526.17,Single-ply,SBD,M
Boys,74.84,9,Alex Diaz #3,San Antonio Southside,74.3,188.24,127.01,208.65,523.9,Single-ply,SBD,M
Boys,74.84,10,Joseph Ortiz,Jourdanton,70.58,185.97,104.33,210.92,501.22,Single-ply,SBD,M
Boys,74.84,11,John Santos #1,Lytle,74.21,201.85,97.52,185.97,485.34,Single-ply,SBD,M
Boys,74.84,12,Kevon McFarland,Universal City Randolph,74.03,158.76,131.54,192.78,483.08,Single-ply,SBD,M
Boys,74.84,13,Nick Quintanilla,Karnes City,74.57,188.24,106.59,185.97,480.81,Single-ply,SBD,M
Boys,74.84,14,Alex Juarez,Blanco,73.94,176.9,127.01,172.37,476.27,Single-ply,SBD,M
Boys,74.84,15,Chase Lindner,Comfort,74.3,145.15,117.93,170.1,433.18,Single-ply,SBD,M
Boys,74.84,16,John Pond,San Antonio East Central,70.58,131.54,104.33,181.44,417.3,Single-ply,SBD,M
Boys,74.84,17,Reilley Suter-Thallemer,Universal City Randolph,73.3,129.27,77.11,161.03,367.41,Single-ply,SBD,M
Boys,74.84,18,Raul Hernandez,Del Rio,73.57,115.67,102.06,142.88,360.61,Single-ply,SBD,M
Boys,74.84,19,Joel Hinojosa,San Marcos,70.03,136.08,70.31,151.95,358.34,Single-ply,SBD,M
Boys,74.84,20,Robert Holguin,San Marcos,72.94,140.61,72.57,142.88,356.07,Single-ply,SBD,M
Boys,74.84,21,Brock Gonzales,Universal City Randolph,71.67,120.2,79.38,149.69,349.27,Single-ply,SBD,M
Boys,74.84,22,Matt Swanson,Universal City Randolph,74.3,95.25,49.9,113.4,258.55,Single-ply,SBD,M
Boys,82.1,1,Thomas Trevino,Pleasanton,79.83,226.8,124.74,217.72,569.26,Single-ply,SBD,M
Boys,82.1,2,Christopher Vinton,Pearsall,78.38,226.8,138.35,199.58,564.72,Single-ply,SBD,M
Boys,89.81,3,Jacob Flores,San Marcos,82.28,231.33,133.81,195.04,560.19,Single-ply,SBD,M
Boys,82.1,4,Jaime Tellez,Gonzales,78.65,226.8,115.67,215.46,557.92,Single-ply,SBD,M
Boys,82.1,5,Sergio Zuniga,San Antonio Southside,80.65,213.19,127.01,206.38,546.58,Single-ply,SBD,M
Boys,82.1,6,Aaron Porras,San Antonio Southside,80.83,231.33,131.54,181.44,544.31,Single-ply,SBD,M
Boys,82.1,7,Austin Gonzales,San Antonio Southside,76.57,197.31,142.88,183.7,523.9,Single-ply,SBD,M
Boys,82.1,8,Conner McLaughlin,Stockdale,78.11,170.1,120.2,226.8,517.1,Single-ply,SBD,M
Boys,82.1,9,Orlando Medrano,Lytle,77.75,181.44,124.74,188.24,494.42,Single-ply,SBD,M
Boys,82.1,10,Dylan Aguinaga,Lytle,78.02,192.78,108.86,190.51,492.15,Single-ply,SBD,M
Boys,82.1,11,James Smith,Comal Canyon,76.75,167.83,117.93,163.29,449.06,Single-ply,SBD,M
Boys,82.1,12,Christian Hinkley,Comfort,79.92,165.56,92.99,185.97,444.52,Single-ply,SBD,M
Boys,82.1,13,Justin Faulkner,Comfort,76.29,158.76,106.59,170.1,435.45,Single-ply,SBD,M
Boys,82.1,14,Jake Breeding,Blanco,79.11,156.49,97.52,172.37,426.38,Single-ply,SBD,M
Boys,82.1,15,Isiah Garcia,Del Rio,77.11,163.29,90.72,138.35,392.36,Single-ply,SBD,M
Boys,89.81,DQ,Juan Perez #13,Lytle,82.33,172.37,,,,Single-ply,SBD,M
Boys,82.1,DQ,Alex Aguero,Jourdanton,80.65,204.12,92.99,,,Single-ply,SBD,M
Boys,89.81,1,David Garza,Cotulla,88.27,254.01,136.08,244.94,635.03,Single-ply,SBD,M
Boys,89.81,2,Jordan Garcia #6,Cotulla,88.9,231.33,142.88,249.48,623.69,Single-ply,SBD,M
Boys,89.81,3,Silverio Trejo,Pearsall,84.37,208.65,120.2,213.19,542.04,Single-ply,SBD,M
Boys,89.81,4,Daniel Ramirez,San Antonio Kennedy,83.1,195.04,129.27,195.04,519.36,Single-ply,SBD,M
Boys,89.81,5,Jessie Ruiz,Blanco,86.82,206.38,117.93,190.51,514.83,Single-ply,SBD,M
Boys,89.81,6,Garrett Pressler,Comfort,84.73,167.83,106.59,199.58,474,Single-ply,SBD,M
Boys,89.81,7,Vincent Faust,Universal City Randolph,85.73,181.44,106.59,181.44,469.47,Single-ply,SBD,M
Boys,89.81,8,Rowdy Souter,Comfort,85.91,174.63,106.59,174.63,455.86,Single-ply,SBD,M
Boys,89.81,9,Freddy Larry,Universal City Randolph,87.09,167.83,108.86,158.76,435.45,Single-ply,SBD,M
Boys,89.81,10,Cole Brust,Universal City Randolph,85.37,154.22,97.52,174.63,426.38,Single-ply,SBD,M
Boys,89.81,11,Dallin Hack,Lytle,84.1,151.95,99.79,172.37,424.11,Single-ply,SBD,M
Boys,89.81,12,Johnathan Arredondo,San Marcos,84.91,145.15,88.45,145.15,378.75,Single-ply,SBD,M
Boys,89.81,13,Ceasar Urbano,Del Rio,86.55,122.47,70.31,124.74,317.51,Single-ply,SBD,M
Boys,99.79,1,Carlos Carrillo,Lytle,94.62,254.01,154.22,238.14,646.37,Single-ply,SBD,M
Boys,99.79,2,Trevor Luckemeyer,Comal Canyon,94.17,276.69,131.54,231.33,639.57,Single-ply,SBD,M
Boys,99.79,3,Zach Ramirez,Comal Canyon,99.25,235.87,158.76,244.94,639.57,Single-ply,SBD,M
Boys,99.79,4,Josh Garza,San Antonio East Central,98.88,210.92,188.24,192.78,591.94,Single-ply,SBD,M
Boys,99.79,5,Brian Bowman,Northside OConnor,99.79,233.6,170.1,188.24,591.94,Single-ply,SBD,M
Boys,109.77,6,Weston Block,Karnes City,100.02,226.8,138.35,224.53,589.67,Single-ply,SBD,M
Boys,99.79,7,Mason LeBlanc,Blanco,93.8,226.8,142.88,199.58,569.26,Single-ply,SBD,M
Boys,99.79,8,Jose Contreras,Gonzales,94.53,219.99,113.4,219.99,553.38,Single-ply,SBD,M
Boys,99.79,9,Chris Barnett,Blanco,95.62,197.31,124.74,215.46,537.51,Single-ply,SBD,M
Boys,99.79,10,Rudy Pena,San Antonio Kennedy,92.17,188.24,102.06,219.99,510.29,Single-ply,SBD,M
Boys,99.79,11,Bryce Sandoval,Poteet,96.8,195.04,113.4,181.44,489.88,Single-ply,SBD,M
Boys,99.79,12,Trey Hodge,Blanco,91.72,181.44,99.79,156.49,437.72,Single-ply,SBD,M
Boys,99.79,13,Robert Hinojosa,San Antonio Kennedy,98.52,154.22,74.84,181.44,410.5,Single-ply,SBD,M
Boys,99.79,DQ,David Moyet,San Antonio Southside,95.53,226.8,,,,Single-ply,SBD,M
Boys,99.79,DQ,Armando Veloz,Del Rio,94.98,,,,,Single-ply,SBD,M
Boys,109.77,1,Enrique Lugo,Jourdanton,105.6,312.98,201.85,240.4,755.23,Single-ply,SBD,M
Boys,109.77,2,Benny Ximenez,Floresville,108.5,272.16,156.49,215.46,644.1,Single-ply,SBD,M
Boys,109.77,3,Alexander Trevino,Floresville,107.32,249.48,142.88,231.33,623.69,Single-ply,SBD,M
Boys,109.77,4,Jack Richison,Comfort,107.23,215.46,151.95,231.33,598.74,Single-ply,SBD,M
Boys,109.77,5,Skyler Nelson,Comal Canyon,106.59,210.92,145.15,226.8,582.87,Single-ply,SBD,M
Boys,109.77,6,Joe Cantu,Lytle,104.28,263.08,113.4,201.85,578.33,Single-ply,SBD,M
Boys,109.77,7,Marc Hubbard,Comfort,109.5,215.46,122.47,231.33,569.26,Single-ply,SBD,M
Boys,109.77,8,Jeremy Ybarra,San Antonio Kennedy,107.41,208.65,117.93,238.14,564.72,Single-ply,SBD,M
Boys,109.77,9,Gilbert Garza,San Antonio Southside,108.95,229.06,142.88,188.24,560.19,Single-ply,SBD,M
Boys,109.77,10,Brian Dolezal,Gonzales,105.87,204.12,124.74,226.8,555.65,Single-ply,SBD,M
Boys,109.77,11,Joshua Macat,Lytle,106.14,204.12,120.2,195.04,519.36,Single-ply,SBD,M
Boys,109.77,12,Jonathan Ramirez,Lytle,109.5,190.51,108.86,192.78,492.15,Single-ply,SBD,M
Boys,109.77,13,AJ Bosquez,San Marcos,102.06,115.67,65.77,115.67,297.1,Single-ply,SBD,M
Boys,109.77,DQ,Austin Block,Karnes City,100.43,226.8,129.27,,,Single-ply,SBD,M
Boys,109.77,DQ,Rd McCarrell,Jourdanton,107.59,206.38,127.01,,,Single-ply,SBD,M
Boys,109.77,DQ,William Olson,Jourdanton,107.23,249.48,136.08,,,Single-ply,SBD,M
Boys,124.74,1,Israel Aguero,Jourdanton,110.59,265.35,165.56,219.99,650.91,Single-ply,SBD,M
Boys,124.74,2,Cameron Kenney,San Marcos,120.56,260.82,179.17,199.58,639.57,Single-ply,SBD,M
Boys,124.74,3,Adrian Contreras,Poteet,118.84,265.35,133.81,238.14,637.3,Single-ply,SBD,M
Boys,124.74,4,Alex Trevino,San Antonio Southside,124.01,244.94,188.24,192.78,625.96,Single-ply,SBD,M
Boys,124.74,5,Hunter Goodman,Blanco,121.02,249.48,111.13,217.72,578.33,Single-ply,SBD,M
Boys,124.74,6,JohnPaul Lugo,Jourdanton,117.48,213.19,127.01,201.85,542.04,Single-ply,SBD,M
Boys,124.74,7,Noah Ramirez,Comfort,122.56,208.65,106.59,204.12,519.36,Single-ply,SBD,M
Boys,124.74,8,Brady Melde,Comal Canyon,121.56,199.58,124.74,185.97,510.29,Single-ply,SBD,M
Boys,124.74,9,Brandon Williams #1,Del Rio,119.2,188.24,104.33,176.9,469.47,Single-ply,SBD,M
Boys,124.74,10,Damian Cantu,San Antonio Kennedy,114.67,176.9,117.93,172.37,467.2,Single-ply,SBD,M
Boys,124.74,11,Joseph Garcia,Del Rio,122.11,142.88,108.86,181.44,433.18,Single-ply,SBD,M
Boys,124.74,12,Hernan Veloz,Del Rio,113.67,161.03,88.45,142.88,392.36,Single-ply,SBD,M
Boys,124.74,DQ,Aaron Herrera,Del Rio,111.04,249.48,,,,Single-ply,SBD,M
Boys,124.74,DQ,Hector Valadez,San Antonio Southside,111.4,231.33,,,,Single-ply,SBD,M
Boys,124.74+,1,Nick O'Bryant,Castroville Medina Valley,135.44,317.51,172.37,258.55,748.43,Single-ply,SBD,M
Boys,124.74+,2,Charest Inman,Castroville Medina Valley,143.06,267.62,199.58,235.87,703.07,Single-ply,SBD,M
Boys,124.74+,3,Drew Kirkpatrick,Uvalde,134.9,267.62,188.24,226.8,682.66,Single-ply,SBD,M
Boys,124.74+,4,Izaiha Ramirez,Comal Canyon,158.39,272.16,181.44,215.46,669.05,Single-ply,SBD,M
Boys,124.74+,5,Cody Krampitz,Comal Canyon,138.98,272.16,158.76,226.8,657.71,Single-ply,SBD,M
Boys,124.74+,6,Trent Enriquez,Karnes City,127.1,233.6,136.08,208.65,578.33,Single-ply,SBD,M
Boys,124.74+,7,Ronnie Lucio,Poteet,127.28,244.94,129.27,195.04,569.26,Single-ply,SBD,M
Boys,124.74+,8,Zach Moore #3,Comfort,135.71,204.12,86.18,188.24,478.54,Single-ply,SBD,M
Boys,124.74+,9,Tyler Moore,Comfort,129.27,176.9,102.06,181.44,460.4,Single-ply,SBD,M
