Division,WeightClassKg,Place,Name,Team,BodyweightKg,Best3SquatKg,Best3BenchKg,Best3DeadliftKg,TotalKg,Equipment,Event,Sex,BirthDate
Boys,51.71,1,Israel Juarez,San Benito,49.99,136.08,72.57,131.54,340.19,Single-ply,SBD,M,
Boys,51.71,2,Julio Velasco,Brownsville Lopez,48.63,122.47,72.57,142.88,337.93,Single-ply,SBD,M,
Boys,51.71,3,Julian Betancourt,Lyford,49.8,122.47,68.04,145.15,335.66,Single-ply,SBD,M,
Boys,55.79,1,Joseph Ramirez,Brownsville Veterans Memorial,55.16,131.54,83.91,179.17,394.63,Single-ply,SBD,M,
Boys,55.79,2,Lucio Zamora,Brownsville Lopez,54.52,131.54,68.04,138.35,337.93,Single-ply,SBD,M,
Boys,55.79,3,Bryan Morales,Brownsville Lopez,55.34,86.18,49.9,104.33,240.4,Single-ply,SBD,M,
Boys,59.87,1,Gabriel Garza,Brownsville Lopez,59.87,176.9,113.4,213.19,503.49,Single-ply,SBD,M,
Boys,59.87,2,Anthony Ayala,Brownsville Veterans Memorial,59.24,188.24,124.74,185.97,498.95,Single-ply,SBD,M,
Boys,59.87,3,Jaden Delarosa,San Benito,58.97,140.61,70.31,154.22,365.14,Single-ply,SBD,M,
Boys,59.87,4,Joe Sanchez,Brownsville Veterans Memorial,59.33,127.01,77.11,120.2,324.32,Single-ply,SBD,M,
Boys,59.87,DQ,Esteban Briseno,San Benito,58.88,136.08,,,,Single-ply,SBD,M,
Boys,67.13,1,Dylan Ybarra,San Benito,66.32,208.65,108.86,197.31,514.83,Single-ply,SBD,M,
Boys,67.13,2,Gabriel Chavez,Lyford,61.51,201.85,99.79,195.04,496.68,Single-ply,SBD,M,
Boys,67.13,3,Rick De Luna,Lyford,66.13,145.15,83.91,170.1,399.16,Single-ply,SBD,M,
Boys,67.13,4,Damien Rangel,Lyford,65.41,131.54,79.38,145.15,356.07,Single-ply,SBD,M,
Boys,74.84,2,Robert Stone,Brownsville Veterans Memorial,73.48,192.78,136.08,210.92,539.77,Single-ply,SBD,M,
Boys,74.84,3,Diego Sixtos,Brownsville Lopez,74.03,210.92,120.2,192.78,523.9,Single-ply,SBD,M,
Boys,74.84,4,Victor Rubalcaba,Lyford,73.75,195.04,111.13,215.46,521.63,Single-ply,SBD,M,
Boys,74.84,5,Ethan Moreno,Lyford,74.3,185.97,104.33,201.85,492.15,Single-ply,SBD,M,
Boys,74.84,6,Abner Ramirez,Brownsville Veterans Memorial,72.76,145.15,70.31,142.88,358.34,Single-ply,SBD,M,
Boys,82.1,1,Justin Rosas,Brownsville Veterans Memorial,80.2,263.08,140.61,231.33,635.03,Single-ply,SBD,M,
Boys,82.1,1,Brandon Compian,San Benito,74.93,215.46,136.08,190.51,542.04,Single-ply,SBD,M,
Boys,82.1,2,Andrew Radar,Brownsville Lopez,80.74,229.06,124.74,199.58,553.38,Single-ply,SBD,M,
Boys,82.1,3,Alex Castro,Lyford,80.74,172.37,104.33,174.63,451.32,Single-ply,SBD,M,
Boys,82.1,4,Ethan Reyes,San Benito,80.38,181.44,79.38,170.1,430.91,Single-ply,SBD,M,
Boys,89.81,1,Robert Trevino,San Benito,87.54,242.67,133.81,240.4,616.89,Single-ply,SBD,M,
Boys,89.81,2,Tyler Hite,San Benito,86,226.8,136.08,206.38,569.26,Single-ply,SBD,M,
Boys,89.81,3,Jaime Martinez,Brownsville Veterans Memorial,85.28,217.72,124.74,192.78,535.24,Single-ply,SBD,M,
Boys,89.81,4,Andres Garcia,Brownsville Lopez,88.72,124.74,92.99,147.42,365.14,Single-ply,SBD,M,
Boys,99.79,1,Nova Bajaran,San Benito,94.71,258.55,142.88,206.38,607.81,Single-ply,SBD,M,
Boys,99.79,2,Miguel Cortez,Brownsville St. Joseph Academy,97.16,215.46,147.42,222.26,585.13,Single-ply,SBD,M,
Boys,99.79,3,Omar Cervantes,Brownsville Lopez,94.17,242.67,142.88,183.7,569.26,Single-ply,SBD,M,
Boys,99.79,4,Jacob Rosas,Brownsville Veterans Memorial,90.08,204.12,124.74,174.63,503.49,Single-ply,SBD,M,
Boys,99.79,5,Manny Lerma,Brownsville Veterans Memorial,96.62,185.97,104.33,197.31,487.61,Single-ply,SBD,M,
Boys,99.79,6,Isaac Ramirez,San Benito,90.72,190.51,106.59,181.44,478.54,Single-ply,SBD,M,
Boys,99.79,7,Keller Busse,Lyford,97.52,154.22,61.23,165.56,381.02,Single-ply,SBD,M,
Boys,109.77,1,Nate Garcia,San Benito,108.68,258.55,142.88,263.08,664.51,Single-ply,SBD,M,
Boys,109.77,2,Carlos Martinez,Lyford,103.33,242.67,145.15,251.74,639.57,Single-ply,SBD,M,
Boys,109.77,DQ,Bryan Chavez,Brownsville Veterans Memorial,109.77,229.06,133.81,,,Single-ply,SBD,M,
Boys,109.77,DQ,Carlos Delgado,Brownsville Lopez,108.86,233.6,129.27,,,Single-ply,SBD,M,
Boys,109.77,DQ,Mario Ramirez,Brownsville Lopez,104.6,260.82,,,,Single-ply,SBD,M,
Boys,124.74,1,Oscar Nieves,Brownsville Lopez,122.47,226.8,156.49,222.26,605.55,Single-ply,SBD,M,
Boys,124.74,2,Avery Breeden,Brownsville Veterans Memorial,116.3,238.14,154.22,197.31,589.67,Single-ply,SBD,M,
Boys,124.74,3,Brandon Longoria,Brownsville Lopez,119.66,215.46,127.01,224.53,566.99,Single-ply,SBD,M,
Boys,139.71,1,Ray Holloman,Brownsville Veterans Memorial,129.18,276.69,149.69,242.67,669.05,Single-ply,SBD,M,
Boys,139.71,2,Jose Martinez #3,San Benito,136.08,263.08,158.76,226.8,648.64,Single-ply,SBD,M,
Boys,139.71,3,Frank Medina,San Benito,132.27,263.08,136.08,240.4,639.57,Single-ply,SBD,M,
Boys,139.71+,1,Diego Castillo,Brownsville Lopez,148.51,231.33,129.27,215.46,576.06,Single-ply,SBD,M,
