Division,WeightClassKg,Place,Name,Team,BodyweightKg,Best3SquatKg,Best3BenchKg,Best3DeadliftKg,TotalKg,Equipment,Event,Sex,BirthDate
Boys,51.71,1,Caleb Johnson,Lumberton,51.17,129.27,74.84,136.08,340.19,Single-ply,SBD,M,
Boys,51.71,2,Tyler Hoang,Nederland,50.08,122.47,65.77,131.54,319.78,Single-ply,SBD,M,
Boys,51.71,3,Marcelo Avalos,Vidor,50.26,106.59,65.77,113.4,285.76,Single-ply,SBD,M,
Boys,51.71,4,Brandan Goodman,Nederland,37.29,72.57,58.97,83.91,215.46,Single-ply,SBD,M,
Boys,55.79,1,Evan Ceja,Nederland,55.43,176.9,104.33,181.44,462.66,Single-ply,SBD,M,
Boys,55.79,2,Tristan Brown,Nederland,53.16,136.08,70.31,142.88,349.27,Single-ply,SBD,M,
Boys,55.79,3,Cole Johnson,Sour Lake Hardin-Jefferson,55.34,117.93,74.84,122.47,315.25,Single-ply,SBD,M,
Boys,55.79,4,Kellen McCracken,Sour Lake Hardin-Jefferson,54.61,102.06,61.23,113.4,276.69,Single-ply,SBD,M,
Boys,55.79,5,Justin Barrera,Nederland,54.79,102.06,52.16,111.13,265.35,Single-ply,SBD,M,
Boys,55.79,6,Parker Carlin,Nederland,55.61,83.91,52.16,111.13,247.21,Single-ply,SBD,M,
Boys,59.87,1,Terron Young,Sour Lake Hardin-Jefferson,57.24,111.13,61.23,127.01,299.37,Single-ply,SBD,M,
Boys,67.13,1,Roberto Suarez,Lumberton,64.14,176.9,108.86,165.56,451.32,Single-ply,SBD,M,
Boys,67.13,2,Ty Cox,Lumberton,67.13,151.95,106.59,167.83,426.38,Single-ply,SBD,M,
Boys,67.13,3,Keaton Winberry,Vidor,65.41,145.15,79.38,149.69,374.21,Single-ply,SBD,M,
Boys,67.13,4,Hayden Comer,Sour Lake Hardin-Jefferson,66.86,142.88,77.11,151.95,371.95,Single-ply,SBD,M,
Boys,67.13,5,Seth Miller,Sour Lake Hardin-Jefferson,63.23,138.35,68.04,138.35,344.73,Single-ply,SBD,M,
Boys,67.13,6,Connor Gay,Sour Lake Hardin-Jefferson,60.6,129.27,72.57,136.08,337.93,Single-ply,SBD,M,
Boys,67.13,DQ,Aston Broussard,Sour Lake Hardin-Jefferson,60.96,,,,,Single-ply,SBD,M,
Boys,74.84,1,Seth Rodgers,Vidor,74.84,188.24,104.33,183.7,476.27,Single-ply,SBD,M,
Boys,74.84,2,Aaron Westbrook,Lumberton,73.57,174.63,108.86,172.37,455.86,Single-ply,SBD,M,
Boys,74.84,3,Moises Padilla,Sour Lake Hardin-Jefferson,74.3,174.63,97.52,165.56,437.72,Single-ply,SBD,M,
Boys,74.84,4,Derik Estrada,Lumberton,70.85,161.03,90.72,176.9,428.64,Single-ply,SBD,M,
Boys,74.84,5,Travis Chretien,Sour Lake Hardin-Jefferson,74.84,151.95,86.18,156.49,394.63,Single-ply,SBD,M,
Boys,74.84,6,Aiden Hewitt,Nederland,72.21,133.81,95.25,151.95,381.02,Single-ply,SBD,M,
Boys,74.84,7,Zachary Hudson,Sour Lake Hardin-Jefferson,71.4,111.13,68.04,124.74,303.91,Single-ply,SBD,M,
Boys,82.1,1,Jesse Myers,Vidor,82.1,215.46,117.93,183.7,517.1,Single-ply,SBD,M,
Boys,82.1,2,Riley Marlow,Vidor,77.38,192.78,127.01,188.24,508.02,Single-ply,SBD,M,
Boys,82.1,3,Ricky Bynum,Vidor,81.83,204.12,99.79,190.51,494.42,Single-ply,SBD,M,
Boys,82.1,4,Easton Stapleton,Lumberton,81.74,170.1,111.13,195.04,476.27,Single-ply,SBD,M,
Boys,82.1,5,Adam Dunbar,Sour Lake Hardin-Jefferson,79.29,124.74,77.11,127.01,328.85,Single-ply,SBD,M,
Boys,82.1,6,Tait Smith,Sour Lake Hardin-Jefferson,80.83,111.13,61.23,120.2,292.57,Single-ply,SBD,M,
Boys,82.1,DQ,Ryland Harvey,Sour Lake Hardin-Jefferson,76.11,,,,,Single-ply,SBD,M,
Boys,89.81,1,Caysen Guerra,Nederland,88.81,229.06,133.81,201.85,564.72,Single-ply,SBD,M,
Boys,89.81,2,Tyler Rojas,Vidor,89.09,190.51,131.54,185.97,508.02,Single-ply,SBD,M,
Boys,89.81,3,Akzayaktl Zambrano,Vidor,89.45,185.97,102.06,217.72,505.76,Single-ply,SBD,M,
Boys,89.81,4,Gavyn Goode,Lumberton,87.72,183.7,120.2,192.78,496.68,Single-ply,SBD,M,
Boys,89.81,5,Chris Cantu,Vidor,89.63,174.63,120.2,197.31,492.15,Single-ply,SBD,M,
Boys,89.81,6,Brooklyn Freeman,Vidor,85.73,183.7,106.59,158.76,449.06,Single-ply,SBD,M,
Boys,99.79,1,Johnnie Torres,Nederland,93.26,238.14,138.35,233.6,610.08,Single-ply,SBD,M,
Boys,99.79,2,Faustino Galvan,Lumberton,92.76,215.46,156.49,233.6,605.55,Single-ply,SBD,M,
Boys,99.79,3,Cade McKinstry,Lumberton,97.43,226.8,142.88,215.46,585.13,Single-ply,SBD,M,
Boys,99.79,4,Noah Dupree,Sour Lake Hardin-Jefferson,97.89,161.03,83.91,161.03,405.97,Single-ply,SBD,M,
Boys,99.79,5,Cole Guidroz,Nederland,91.17,151.95,102.06,142.88,396.89,Single-ply,SBD,M,
Boys,99.79,6,Robert Hughes,Nederland,90.72,142.88,81.65,147.42,371.95,Single-ply,SBD,M,
Boys,109.77,1,Grayden Spencer,Lumberton,109.68,244.94,136.08,249.48,630.49,Single-ply,SBD,M,
Boys,109.77,2,Robert Hendon,Lumberton,102.33,244.94,117.93,192.78,555.65,Single-ply,SBD,M,
Boys,109.77,3,Braden Borders,Lumberton,107.95,161.03,102.06,167.83,430.91,Single-ply,SBD,M,
Boys,109.77,DQ,Lane Leviness,Vidor,108.59,213.19,133.81,,,Single-ply,SBD,M,
Boys,124.74,1,Gabe Hernandez,Lumberton,118.66,226.8,149.69,183.7,560.19,Single-ply,SBD,M,
Boys,124.74,2,Wacy Blanchard,Nederland,112.85,226.8,111.13,190.51,528.44,Single-ply,SBD,M,
Boys,124.74,3,Rylan Morgan,Sour Lake Hardin-Jefferson,120.84,233.6,,,233.6,Single-ply,S,M,
Boys,139.71,1,Holden Craver,Nederland,136.26,297.1,151.95,215.46,664.51,Single-ply,SBD,M,
Boys,139.71,2,Colby Smith,Nederland,131.63,215.46,124.74,161.03,501.22,Single-ply,SBD,M,
Boys,139.71+,1,Andrew Hall,Nederland,169.82,224.53,140.61,183.7,548.85,Single-ply,SBD,M,
