Division,WeightClassKg,Place,Name,Team,BodyweightKg,Best3SquatKg,Best3BenchKg,Best3DeadliftKg,TotalKg,Equipment,Event,Sex,BirthDate
Boys,51.71,1,Jesse James Cruz,Gainesville,47.26,102.06,63.5,106.59,272.16,Single-ply,SBD,M,
Boys,55.79,DQ,Alexis Huerta,Gainesville,55.61,172.37,88.45,,,Single-ply,SBD,M,
Boys,59.87,1,Destin Warr,Callisburg,57.24,151.95,97.52,165.56,415.04,Single-ply,SBD,M,
Boys,59.87,2,Daniel Quevedo,Gainesville,57.52,163.29,88.45,136.08,387.82,Single-ply,SBD,M,
Boys,59.87,3,Brayden Bahr,Sherman,58.6,70.31,43.09,88.45,201.85,Single-ply,SBD,M,
Boys,67.13,1,Justin Horst,Sanger,66.13,165.56,83.91,172.37,421.84,Single-ply,SBD,M,
Boys,67.13,2,Suede Wannamaker,Callisburg,66.04,158.76,90.72,158.76,408.23,Single-ply,SBD,M,
Boys,67.13,3,William Hall,Whitesboro,64.59,158.76,97.52,149.69,405.97,Single-ply,SBD,M,
Boys,74.84,1,Wylie Head,Callisburg,74.66,158.76,97.52,192.78,449.06,Single-ply,SBD,M,
Boys,74.84,2,Richard Manuel,Gainesville,69.49,83.91,54.43,90.72,229.06,Single-ply,SBD,M,
Boys,74.84,DQ,Chase Waller,Tioga,67.49,120.2,74.84,,,Single-ply,SBD,M,
Boys,74.84,DQ,Azik Willis,Collinsville,74.3,142.88,90.72,,,Single-ply,SBD,M,
Boys,74.84,DQ,Clayton Moore,Callisburg,69.67,170.1,88.45,,,Single-ply,SBD,M,
Boys,82.1,1,Noah Stegman,Denison,81.1,190.51,138.35,210.92,539.77,Single-ply,SBD,M,
Boys,82.1,2,John Okeri,Sherman,79.02,204.12,124.74,201.85,530.7,Single-ply,SBD,M,
Boys,82.1,3,Zion Richardson,Sadler S & S Consolidated,80.1,210.92,113.4,183.7,508.02,Single-ply,SBD,M,
Boys,82.1,4,Braylon Purvey,Gainesville,81.37,206.38,113.4,183.7,503.49,Single-ply,SBD,M,
Boys,82.1,5,Vitto Minarelli,Sherman,80.47,163.29,97.52,195.04,455.86,Single-ply,SBD,M,
Boys,82.1,6,Angel Solorzano,Sherman,76.11,147.42,90.72,170.1,408.23,Single-ply,SBD,M,
Boys,89.81,1,Nolan Blackmon,Celeste,83.46,188.24,120.2,199.58,508.02,Single-ply,SBD,M,
Boys,89.81,2,Bryce Johnson,Collinsville,87.63,192.78,106.59,201.85,501.22,Single-ply,SBD,M,
Boys,89.81,3,Collin Burns,Whitesboro,84.19,165.56,97.52,156.49,419.57,Single-ply,SBD,M,
Boys,89.81,DQ,Cason Serna,Tioga,83.28,151.95,92.99,,,Single-ply,SBD,M,
Boys,99.79,1,Michael Driggers,Sanger,91.17,249.48,124.74,226.8,601.01,Single-ply,SBD,M,
Boys,99.79,2,Jacob Weir,Callisburg,97.7,229.06,142.88,201.85,573.79,Single-ply,SBD,M,
Boys,99.79,3,Marshall Knowlton,Whitesboro,95.53,190.51,108.86,217.72,517.1,Single-ply,SBD,M,
Boys,99.79,4,Kyler Murphree,Whitesboro,99.79,136.08,113.4,142.88,392.36,Single-ply,SBD,M,
Boys,99.79,5,Jacob Shadburn,Tioga,99.52,142.88,92.99,131.54,367.41,Single-ply,SBD,M,
Boys,109.77,1,Steven Zamora,Gainesville,101.42,247.21,165.56,183.7,596.47,Single-ply,SBD,M,
Boys,109.77,2,Carlos Vega,Gainesville,99.97,233.6,138.35,204.12,576.06,Single-ply,SBD,M,
Boys,109.77,3,Jacob Castillo,Whitesboro,107.05,206.38,131.54,185.97,523.9,Single-ply,SBD,M,
Boys,109.77,4,Julian Olivares,Celeste,104.96,188.24,140.61,188.24,517.1,Single-ply,SBD,M,
Boys,109.77,5,Kyler Henegar,Lindsay,103.6,181.44,124.74,174.63,480.81,Single-ply,SBD,M,
Boys,124.74,DQ,Jose Robles,Gainesville,122.47,213.19,142.88,,,Single-ply,SBD,M,
Boys,139.71,1,Kellen Rollins,Blue Ridge,132.72,256.28,158.76,215.46,630.49,Single-ply,SBD,M,
Boys,139.71,2,Cash Ottwell,Celeste,131.18,183.7,124.74,185.97,494.42,Single-ply,SBD,M,
