Division,WeightClassKg,Place,Name,Team,BodyweightKg,Best3SquatKg,Best3BenchKg,Best3DeadliftKg,TotalKg,Equipment,Event,Sex,BirthDate
Boys,51.71,1,Jesse Ortiz,Jourdanton,49.9,65.77,52.16,102.06,219.99,Single-ply,SBD,M,
Boys,55.79,1,Christopher Loera,San Antonio Kennedy,55.07,102.06,65.77,124.74,292.57,Single-ply,SBD,M,
Boys,55.79,2,Jacob Tuckness,Comal Canyon Lake,54.61,97.52,58.97,111.13,267.62,Single-ply,SBD,M,
Boys,55.79,3,Colten Brown,Jourdanton,54.7,97.52,56.7,113.4,267.62,Single-ply,SBD,M,
Boys,55.79,4,Joey Wilson,Comal Canyon Lake,55.25,102.06,49.9,106.59,258.55,Single-ply,SBD,M,
Boys,55.79,5,Jesiah Rodriguez,Comal Canyon Lake,53.61,97.52,54.43,104.33,256.28,Single-ply,SBD,M,
Boys,59.87,1,Thomas Dorman,Comal Canyon Lake,59.33,158.76,79.38,151.95,390.09,Single-ply,SBD,M,
Boys,59.87,2,Justin Abbott,Comal Canyon Lake,59.87,136.08,77.11,140.61,353.8,Single-ply,SBD,M,
Boys,59.87,3,Leo Esparza,Pearsall,58.33,124.74,63.5,122.47,310.71,Single-ply,SBD,M,
Boys,59.87,4,Jared Dedear,Karnes City,58.24,102.06,56.7,127.01,285.76,Single-ply,SBD,M,
Boys,59.87,5,Martin Gonzales,San Antonio Southside,58.79,111.13,61.23,113.4,285.76,Single-ply,SBD,M,
Boys,59.87,6,Jocivus Lopez,Jourdanton,58.51,97.52,70.31,111.13,278.96,Single-ply,SBD,M,
Boys,67.13,1,Nacious Jaquez,San Antonio Kennedy,66.04,192.78,113.4,183.7,489.88,Single-ply,SBD,M,
Boys,67.13,2,Braxton Springer,Pleasanton,66.13,183.7,99.79,190.51,474,Single-ply,SBD,M,
Boys,67.13,3,Kingston Martinez,Pearsall,66.22,156.49,102.06,167.83,426.38,Single-ply,SBD,M,
Boys,67.13,4,Jacob Rodriquez,San Antonio Southside,64.41,167.83,83.91,161.03,412.77,Single-ply,SBD,M,
Boys,67.13,5,Robert Longoria,Pearsall,63.05,129.27,77.11,174.63,381.02,Single-ply,SBD,M,
Boys,67.13,6,Roman Martinez,Pleasanton,66.32,140.61,83.91,142.88,367.41,Single-ply,SBD,M,
Boys,67.13,7,Trevin Cutrer,Comal Canyon Lake,67.13,124.74,68.04,149.69,342.46,Single-ply,SBD,M,
Boys,67.13,8,Talan Smith,Comal Canyon Lake,66.04,124.74,72.57,131.54,328.85,Single-ply,SBD,M,
Boys,67.13,9,Kaiden Lewis,Comal Canyon Lake,60.96,124.74,72.57,120.2,317.51,Single-ply,SBD,M,
Boys,67.13,10,Matthew Rodriguez,San Antonio Kennedy,62.6,99.79,61.23,142.88,303.91,Single-ply,SBD,M,
Boys,67.13,11,Nick Sanchez,Jourdanton,63.59,92.99,61.23,122.47,276.69,Single-ply,SBD,M,
Boys,74.84,1,Luke Fanno,Jourdanton,70.31,215.46,142.88,217.72,576.06,Single-ply,SBD,M,
Boys,74.84,2,Christopher Rodriguez,San Antonio Southside,68.76,199.58,113.4,183.7,496.68,Single-ply,SBD,M,
Boys,74.84,3,Alex Villarreal,San Antonio Memorial,73.94,199.58,108.86,188.24,496.68,Single-ply,SBD,M,
Boys,74.84,4,Jayden Correa,San Antonio Southwest Legacy,73.66,183.7,102.06,188.24,474,Single-ply,SBD,M,
Boys,74.84,5,Adam Gonzalez,San Antonio Southwest Legacy,73.57,167.83,86.18,197.31,451.32,Single-ply,SBD,M,
Boys,74.84,6,Joseph Hernandez,Jourdanton,69.13,149.69,104.33,183.7,437.72,Single-ply,SBD,M,
Boys,74.84,7,Daniel Torres,San Antonio Kennedy,73.12,151.95,83.91,161.03,396.89,Single-ply,SBD,M,
Boys,74.84,8,Randy Contreras,San Antonio Kennedy,71.49,147.42,70.31,161.03,378.75,Single-ply,SBD,M,
Boys,74.84,9,Caden Rodriguez,Comal Canyon Lake,73.94,136.08,79.38,131.54,347,Single-ply,SBD,M,
Boys,74.84,10,Davian Gomez,Karnes City,71.3,124.74,74.84,142.88,342.46,Single-ply,SBD,M,
Boys,74.84,11,Jose Godinez,Karnes City,68.86,122.47,72.57,138.35,333.39,Single-ply,SBD,M,
Boys,74.84,12,Leonardo Amaro,Converse Judson,71.12,99.79,65.77,120.2,285.76,Single-ply,SBD,M,
Boys,82.1,1,Chris Verdin,Jourdanton,81.69,256.28,165.56,258.55,680.39,Single-ply,SBD,M,
Boys,82.1,2,Nathaniel Arias,Jourdanton,81.74,231.33,129.27,242.67,603.28,Single-ply,SBD,M,
Boys,82.1,3,JoAnthony Mendoza,Jourdanton,82.1,208.65,129.27,208.65,546.58,Single-ply,SBD,M,
Boys,82.1,4,Sincere Alaniz,Karnes City,80.1,176.9,102.06,208.65,487.61,Single-ply,SBD,M,
Boys,82.1,5,Jacob Montoya,San Antonio Southside,79.02,188.24,127.01,151.95,467.2,Single-ply,SBD,M,
Boys,82.1,6,Matthew Elson,Comal Canyon Lake,77.84,183.7,97.52,172.37,453.59,Single-ply,SBD,M,
Boys,82.1,7,Christian Miranda,Converse Judson,79.83,106.59,70.31,111.13,288.03,Single-ply,SBD,M,
Boys,82.1,DQ,Ariel Hernandez,Pearsall,81.37,,,,,Single-ply,SBD,M,
Boys,89.81,1,Juan Lerma,Jourdanton,89.81,219.99,206.38,210.92,637.3,Single-ply,SBD,M,
Boys,89.81,2,Nathan Peralta,San Antonio Southside,86.09,226.8,140.61,226.8,594.21,Single-ply,SBD,M,
Boys,89.81,3,Abraham Padilla,San Antonio Southwest Legacy,89.18,192.78,120.2,167.83,480.81,Single-ply,SBD,M,
Boys,89.81,4,Naythan Pena,San Antonio Southwest Legacy,86.82,165.56,117.93,170.1,453.59,Single-ply,SBD,M,
Boys,89.81,5,Nathan Shearer,San Antonio Southwest Legacy,87.91,170.1,106.59,174.63,451.32,Single-ply,SBD,M,
Boys,89.81,6,Xavier Tijerina,Jourdanton,87.63,165.56,97.52,183.7,446.79,Single-ply,SBD,M,
Boys,89.81,7,Nathan Mason,San Antonio Kennedy,85.82,174.63,83.91,179.17,437.72,Single-ply,SBD,M,
Boys,89.81,8,Isreal Reyes,Pearsall,87.36,170.1,102.06,149.69,421.84,Single-ply,SBD,M,
Boys,89.81,9,Rafael Villalpando,San Antonio Southwest Legacy,82.55,142.88,81.65,181.44,405.97,Single-ply,SBD,M,
Boys,89.81,10,Zach Staley,Jourdanton,88.63,129.27,77.11,131.54,337.93,Single-ply,SBD,M,
Boys,89.81,11,Brayden Dedear,Karnes City,82.55,90.72,61.23,124.74,276.69,Single-ply,SBD,M,
Boys,89.81,DQ,Shawn Rios,San Antonio Memorial,87.72,,,,,Single-ply,SBD,M,
Boys,99.79,1,Fabian Alvarez,San Antonio Southwest Legacy,97.07,215.46,131.54,247.21,594.21,Single-ply,SBD,M,
Boys,99.79,2,Danilo Lugo,Jourdanton,94.62,183.7,113.4,226.8,523.9,Single-ply,SBD,M,
Boys,99.79,3,Donald Neil Parks,Jourdanton,96.98,210.92,104.33,195.04,510.29,Single-ply,SBD,M,
Boys,99.79,4,Scott Jimenez,San Antonio Memorial,98.88,154.22,113.4,170.1,437.72,Single-ply,SBD,M,
Boys,99.79,5,Aidan Garza,Karnes City,91.81,154.22,83.91,188.24,426.38,Single-ply,SBD,M,
Boys,99.79,6,Lucio Ramirez,Pearsall,98.43,181.44,92.99,129.27,403.7,Single-ply,SBD,M,
Boys,99.79,7,Angel Romero #2,San Antonio Kennedy,96.25,120.2,102.06,142.88,365.14,Single-ply,SBD,M,
Boys,99.79,DQ,Helijah Johnson,Comal Canyon Lake,91.26,,,,,Single-ply,SBD,M,
Boys,109.77,1,Ethan Tullos-Chapa,San Antonio Southwest Legacy,109.41,265.35,170.1,238.14,673.58,Single-ply,SBD,M,
Boys,109.77,2,DJ Nunez,Karnes City,101.7,238.14,142.88,226.8,607.81,Single-ply,SBD,M,
Boys,109.77,3,Cody Wilkerson,San Antonio Southside,107.32,233.6,140.61,233.6,607.81,Single-ply,SBD,M,
Boys,109.77,4,Dylon Gatica,Karnes City,106.68,226.8,131.54,204.12,562.45,Single-ply,SBD,M,
Boys,109.77,5,Gabriel Arguijo,Jourdanton,106.96,165.56,111.13,190.51,467.2,Single-ply,SBD,M,
Boys,109.77,6,Dominic Gonzales,San Antonio Southwest Legacy,103.87,170.1,117.93,167.83,455.86,Single-ply,SBD,M,
Boys,109.77,DQ,Sebastian Carrilo,Pearsall,106.23,192.78,,,,Single-ply,SBD,M,
Boys,124.74,1,Gabriel Gutierrez,Pearsall,116.66,294.84,170.1,254.01,718.94,Single-ply,SBD,M,
Boys,124.74,2,Ethan Dranowsky,San Antonio Kennedy,110.04,247.21,142.88,226.8,616.89,Single-ply,SBD,M,
Boys,124.74,3,Solomon Barnoski,Karnes City,115.76,210.92,138.35,201.85,551.11,Single-ply,SBD,M,
Boys,124.74,4,Reymundo Arellano,San Antonio Memorial,113.04,210.92,131.54,201.85,544.31,Single-ply,SBD,M,
Boys,124.74,5,Sebastian Aguilar,Pleasanton,120.75,231.33,111.13,188.24,530.7,Single-ply,SBD,M,
Boys,124.74,6,Andrew Murillo,Pleasanton,117.39,210.92,111.13,183.7,505.76,Single-ply,SBD,M,
Boys,124.74,7,Jimmy Mendoza,Comal Canyon Lake,115.39,197.31,106.59,199.58,503.49,Single-ply,SBD,M,
Boys,124.74,8,Jashandeep Sandhu,Jourdanton,112.04,129.27,104.33,142.88,376.48,Single-ply,SBD,M,
Boys,124.74,9,Pedro Lopez,Karnes City,121.56,136.08,70.31,142.88,349.27,Single-ply,SBD,M,
Boys,124.74,DQ,Ismael Gonzales,Pearsall,118.39,142.88,,,,Single-ply,SBD,M,
Boys,124.74,DQ,Adrian Perez,San Antonio Southwest Legacy,110.95,174.63,,,,Single-ply,SBD,M,
Boys,139.71,1,Diego Valdez,Pleasanton,136.62,235.87,161.03,201.85,598.74,Single-ply,SBD,M,
Boys,139.71,2,Manuel Reyna,San Antonio Kennedy,125.65,195.04,102.06,192.78,489.88,Single-ply,SBD,M,
Boys,139.71,3,Ryan Hughes,Pearsall,126.37,188.24,106.59,154.22,449.06,Single-ply,SBD,M,
Boys,139.71,4,Caleb Galindo,Jourdanton,129.55,170.1,102.06,174.63,446.79,Single-ply,SBD,M,
Boys,139.71,5,Tyler Martinez,Jourdanton,129.27,115.67,86.18,151.95,353.8,Single-ply,SBD,M,
Boys,139.71,6,Malachi Mixon,Jourdanton,129.73,99.79,74.84,142.88,317.51,Single-ply,SBD,M,
Boys,139.71+,1,Manuel Belmarez,San Antonio Memorial,143.34,219.99,131.54,192.78,544.31,Single-ply,SBD,M,
Boys,139.71+,2,Ethan Samaniego,San Antonio Memorial,154.77,165.56,120.2,167.83,453.59,Single-ply,SBD,M,
Boys,139.71+,3,Ethan Lopez,Karnes City,176.27,181.44,92.99,161.03,435.45,Single-ply,SBD,M,
